<?xml version="1.0" encoding="utf-8"?>
<!-- Generator: Adobe Illustrator 19.0.0, SVG Export Plug-In . SVG Version: 6.00 Build 0)  -->
<svg version="1.1" id="Layer_1" xmlns="http://www.w3.org/2000/svg" xmlns:xlink="http://www.w3.org/1999/xlink" x="0px" y="0px"
	 width="150px" height="150px" viewBox="0 0 150 150" style="enable-background:new 0 0 150 150;" xml:space="preserve">
<style type="text/css">
	.st0{opacity:0.65;fill:none;stroke:#FFFFFF;stroke-linecap:square;stroke-miterlimit:10;}
	.st1{opacity:0.65;fill:none;stroke:#FFFFFF;stroke-miterlimit:10;}
</style>
<line id="XMLID_3_" class="st0" x1="137.3" y1="13" x2="13" y2="137.1"/>
<polyline id="XMLID_2_" class="st1" points="13,101 13,137 49,137 "/>
</svg>
